{
  "values": [
    "cobblemon:small_budding_black_tumblestone",
    "cobblemon:medium_budding_black_tumblestone",
    "cobblemon:large_budding_black_tumblestone",
    "cobblemon:black_tumblestone_cluster",
    "cobblemon:black_tumblestone_block",
	"cobblemon:polished_black_tumblestone",
	"cobblemon:polished_black_tumblestone_stairs",
	"cobblemon:polished_black_tumblestone_slab",
	"cobblemon:polished_black_tumblestone_wall",
	"cobblemon:chiseled_polished_black_tumblestone",
	"cobblemon:black_tumblestone_bricks",
	"cobblemon:black_tumblestone_brick_stairs",
	"cobblemon:black_tumblestone_brick_slab",
	"cobblemon:black_tumblestone_brick_wall",
	"cobblemon:chiseled_black_tumblestone_bricks"
  ]
}